<svg class="svg--close-circle" xmlns="http://www.w3.org/2000/svg" width="14.516" height="14.516" viewBox="0 0 14.516 14.516">
  <g transform="translate(-3.375 -3.375)">
    <path class="svg__primary" d="M10.633,3.375a7.258,7.258,0,1,0,7.258,7.258,7.257,7.257,0,0,0-7.258-7.258Z" fill="#7992dc"/>
    <path class="svg__white" d="M17.786,16.995l-1.839-1.839,1.839-1.839A.558.558,0,0,0,17,12.529l-1.839,1.839L13.32,12.529a.558.558,0,0,0-.789.789l1.839,1.839-1.839,1.839a.539.539,0,0,0,0,.789.554.554,0,0,0,.789,0l1.839-1.839L17,17.784a.56.56,0,0,0,.789,0A.554.554,0,0,0,17.786,16.995Z" transform="translate(-4.526 -4.523)" fill="#fff"/>
  </g>
</svg>
