<svg class="svg--message" xmlns="http://www.w3.org/2000/svg" width="18.489" height="15.207" viewBox="0 0 18.489 15.207">
  <g transform="translate(-1501.41 -24)">
    <path d="M17.811,6H4.646A1.646,1.646,0,0,0,3.008,7.651L3,17.557a1.653,1.653,0,0,0,1.646,1.651H17.811a1.653,1.653,0,0,0,1.646-1.651V7.651A1.653,1.653,0,0,0,17.811,6Z" transform="translate(1499.41 19)" fill="none" stroke="#fff" stroke-width="2"/>
    <path d="M11200.174,9524.33l7.727,6.392,7.809-6.392" transform="translate(-9697.217 -9498.381)" fill="none" stroke="#fff" stroke-linecap="round" stroke-linejoin="round" stroke-width="2"/>
  </g>
</svg>
