<svg class="svg--zoom-out" xmlns="http://www.w3.org/2000/svg" width="21.082" height="21.082" viewBox="0 0 21.082 21.082">
  <g transform="translate(0.75 0.75)">
    <path d="M21.921,13.211A8.711,8.711,0,1,1,13.211,4.5a8.711,8.711,0,0,1,8.711,8.711Z" transform="translate(-4.5 -4.5)" fill="none" stroke="#001e60" stroke-linecap="round" stroke-linejoin="round" stroke-width="1.5"/>
    <path d="M29,29l-4.025-4.025" transform="translate(-9.728 -9.728)" fill="none" stroke="#001e60" stroke-linecap="round" stroke-linejoin="round" stroke-width="1.5"/>
    <path d="M12,16.5h5.552" transform="translate(-6.283 -7.935)" fill="none" stroke="#001e60" stroke-linecap="round" stroke-linejoin="round" stroke-width="1.5"/>
  </g>
</svg>
